%YAML 1.1
%TAG !u! tag:unity3d.com,2011:
--- !u!1045 &1
EditorBuildSettings:
  m_ObjectHideFlags: 0
  serializedVersion: 2
  m_Scenes:
  - enabled: 1
    path: Assets/Scenes/Main Menu.unity
    guid: e05590d732a95134ea81ba817ddb2b19
  - enabled: 1
    path: Assets/Scenes/0.unity
    guid: 9dd97c257c1551940958c4560b93560d
  - enabled: 1
    path: Assets/Scenes/1.unity
    guid: 0aeaad6a7ff2a6b4cb14a5d581e5233c
  m_configObjects: {}
